%YAML 1.1
%TAG !u! tag:unity3d.com,2011:
--- !u!1 &100000
GameObject:
  m_ObjectHideFlags: 0
  m_PrefabParentObject: {fileID: 0}
  m_PrefabInternal: {fileID: 100100000}
  serializedVersion: 5
  m_Component:
  - component: {fileID: 400000}
  - component: {fileID: 3300000}
  - component: {fileID: 2300000}
  - component: {fileID: 11400000}
  m_Layer: 0
  m_Name: Flag Japan Mobile
  m_TagString: Untagged
  m_Icon: {fileID: 0}
  m_NavMeshLayer: 0
  m_StaticEditorFlags: 0
  m_IsActive: 1
--- !u!4 &400000
Transform:
  m_ObjectHideFlags: 1
  m_PrefabParentObject: {fileID: 0}
  m_PrefabInternal: {fileID: 100100000}
  m_GameObject: {fileID: 100000}
  m_LocalRotation: {x: 0, y: 0, z: 0, w: 1}
  m_LocalPosition: {x: 0, y: 0, z: 0}
  m_LocalScale: {x: 1.1198758, y: 1.1198757, z: 1.1198759}
  m_Children: []
  m_Father: {fileID: 0}
  m_RootOrder: 0
  m_LocalEulerAnglesHint: {x: 0, y: 0, z: 0}
--- !u!23 &2300000
MeshRenderer:
  m_ObjectHideFlags: 1
  m_PrefabParentObject: {fileID: 0}
  m_PrefabInternal: {fileID: 100100000}
  m_GameObject: {fileID: 100000}
  m_Enabled: 1
  m_CastShadows: 1
  m_ReceiveShadows: 1
  m_MotionVectors: 1
  m_LightProbeUsage: 0
  m_ReflectionProbeUsage: 1
  m_Materials:
  - {fileID: 2100000, guid: c5aeeabe5eef6f148943c5f132dab78b, type: 2}
  m_StaticBatchInfo:
    firstSubMesh: 0
    subMeshCount: 0
  m_StaticBatchRoot: {fileID: 0}
  m_ProbeAnchor: {fileID: 0}
  m_LightProbeVolumeOverride: {fileID: 0}
  m_ScaleInLightmap: 1
  m_PreserveUVs: 0
  m_IgnoreNormalsForChartDetection: 0
  m_ImportantGI: 0
  m_SelectedEditorRenderState: 3
  m_MinimumChartSize: 4
  m_AutoUVMaxDistance: 0.5
  m_AutoUVMaxAngle: 89
  m_LightmapParameters: {fileID: 0}
  m_SortingLayerID: 0
  m_SortingLayer: 0
  m_SortingOrder: 0
--- !u!33 &3300000
MeshFilter:
  m_ObjectHideFlags: 1
  m_PrefabParentObject: {fileID: 0}
  m_PrefabInternal: {fileID: 100100000}
  m_GameObject: {fileID: 100000}
  m_Mesh: {fileID: 4301350, guid: 9713161775992f34ba2f733130ecab43, type: 3}
--- !u!114 &11400000
MonoBehaviour:
  m_ObjectHideFlags: 1
  m_PrefabParentObject: {fileID: 0}
  m_PrefabInternal: {fileID: 100100000}
  m_GameObject: {fileID: 100000}
  m_Enabled: 1
  m_EditorHideFlags: 0
  m_Script: {fileID: 11500000, guid: ca5a43a5876758f4e9fb406905746835, type: 3}
  m_Name: 
  m_EditorClassIdentifier: 
  meshCache:
  - {fileID: 3301350, guid: 9713161775992f34ba2f733130ecab43, type: 3}
  - {fileID: 3301372, guid: 9713161775992f34ba2f733130ecab43, type: 3}
  - {fileID: 3301394, guid: 9713161775992f34ba2f733130ecab43, type: 3}
  - {fileID: 3301416, guid: 9713161775992f34ba2f733130ecab43, type: 3}
  - {fileID: 3301428, guid: 9713161775992f34ba2f733130ecab43, type: 3}
  - {fileID: 3301430, guid: 9713161775992f34ba2f733130ecab43, type: 3}
  - {fileID: 3301432, guid: 9713161775992f34ba2f733130ecab43, type: 3}
  - {fileID: 3301434, guid: 9713161775992f34ba2f733130ecab43, type: 3}
  - {fileID: 3301436, guid: 9713161775992f34ba2f733130ecab43, type: 3}
  - {fileID: 3301352, guid: 9713161775992f34ba2f733130ecab43, type: 3}
  - {fileID: 3301354, guid: 9713161775992f34ba2f733130ecab43, type: 3}
  - {fileID: 3301356, guid: 9713161775992f34ba2f733130ecab43, type: 3}
  - {fileID: 3301358, guid: 9713161775992f34ba2f733130ecab43, type: 3}
  - {fileID: 3301360, guid: 9713161775992f34ba2f733130ecab43, type: 3}
  - {fileID: 3301362, guid: 9713161775992f34ba2f733130ecab43, type: 3}
  - {fileID: 3301364, guid: 9713161775992f34ba2f733130ecab43, type: 3}
  - {fileID: 3301366, guid: 9713161775992f34ba2f733130ecab43, type: 3}
  - {fileID: 3301368, guid: 9713161775992f34ba2f733130ecab43, type: 3}
  - {fileID: 3301370, guid: 9713161775992f34ba2f733130ecab43, type: 3}
  - {fileID: 3301374, guid: 9713161775992f34ba2f733130ecab43, type: 3}
  - {fileID: 3301376, guid: 9713161775992f34ba2f733130ecab43, type: 3}
  - {fileID: 3301378, guid: 9713161775992f34ba2f733130ecab43, type: 3}
  - {fileID: 3301380, guid: 9713161775992f34ba2f733130ecab43, type: 3}
  - {fileID: 3301382, guid: 9713161775992f34ba2f733130ecab43, type: 3}
  - {fileID: 3301384, guid: 9713161775992f34ba2f733130ecab43, type: 3}
  - {fileID: 3301386, guid: 9713161775992f34ba2f733130ecab43, type: 3}
  - {fileID: 3301388, guid: 9713161775992f34ba2f733130ecab43, type: 3}
  - {fileID: 3301390, guid: 9713161775992f34ba2f733130ecab43, type: 3}
  - {fileID: 3301392, guid: 9713161775992f34ba2f733130ecab43, type: 3}
  - {fileID: 3301396, guid: 9713161775992f34ba2f733130ecab43, type: 3}
  - {fileID: 3301398, guid: 9713161775992f34ba2f733130ecab43, type: 3}
  - {fileID: 3301400, guid: 9713161775992f34ba2f733130ecab43, type: 3}
  - {fileID: 3301402, guid: 9713161775992f34ba2f733130ecab43, type: 3}
  - {fileID: 3301404, guid: 9713161775992f34ba2f733130ecab43, type: 3}
  - {fileID: 3301406, guid: 9713161775992f34ba2f733130ecab43, type: 3}
  - {fileID: 3301408, guid: 9713161775992f34ba2f733130ecab43, type: 3}
  - {fileID: 3301410, guid: 9713161775992f34ba2f733130ecab43, type: 3}
  - {fileID: 3301412, guid: 9713161775992f34ba2f733130ecab43, type: 3}
  - {fileID: 3301414, guid: 9713161775992f34ba2f733130ecab43, type: 3}
  - {fileID: 3301418, guid: 9713161775992f34ba2f733130ecab43, type: 3}
  - {fileID: 3301420, guid: 9713161775992f34ba2f733130ecab43, type: 3}
  - {fileID: 3301422, guid: 9713161775992f34ba2f733130ecab43, type: 3}
  - {fileID: 3301424, guid: 9713161775992f34ba2f733130ecab43, type: 3}
  meshCached: {fileID: 400000, guid: 9713161775992f34ba2f733130ecab43, type: 3}
  meshContainerFBX: {fileID: 400000, guid: 9713161775992f34ba2f733130ecab43, type: 3}
  playSpeed: 24
  playSpeedRandom: 0
  randomSpeedLoop: 0
  currentFrame: 0
  meshCacheCount: 43
  meshFilter: {fileID: 3300000}
  rendererComponent: {fileID: 0}
  updateInterval: 0.05
  randomRotateX: 0
  randomRotateY: 0
  randomRotateZ: 0
  randomStartFrame: 1
  randomRotateLoop: 0
  loop: 1
  pingPong: 0
  playOnAwake: 1
  randomStartDelay: {x: 0, y: 0}
  transformCache: {fileID: 0}
  delta: 0
--- !u!1001 &100100000
Prefab:
  m_ObjectHideFlags: 1
  serializedVersion: 2
  m_Modification:
    m_TransformParent: {fileID: 0}
    m_Modifications: []
    m_RemovedComponents: []
  m_ParentPrefab: {fileID: 0}
  m_RootGameObject: {fileID: 100000}
  m_IsPrefabParent: 1
