%YAML 1.1
%TAG !u! tag:unity3d.com,2011:
--- !u!1 &100000
GameObject:
  m_ObjectHideFlags: 0
  m_PrefabParentObject: {fileID: 0}
  m_PrefabInternal: {fileID: 100100000}
  serializedVersion: 5
  m_Component:
  - component: {fileID: 400000}
  - component: {fileID: 3300000}
  - component: {fileID: 2300000}
  - component: {fileID: 11400000}
  m_Layer: 0
  m_Name: Flag Canada
  m_TagString: Untagged
  m_Icon: {fileID: 0}
  m_NavMeshLayer: 0
  m_StaticEditorFlags: 0
  m_IsActive: 1
--- !u!4 &400000
Transform:
  m_ObjectHideFlags: 1
  m_PrefabParentObject: {fileID: 0}
  m_PrefabInternal: {fileID: 100100000}
  m_GameObject: {fileID: 100000}
  m_LocalRotation: {x: 0, y: 0, z: 0, w: 1}
  m_LocalPosition: {x: 0, y: 0, z: 0}
  m_LocalScale: {x: 1.1853048, y: 0.81912977, z: 0.6851471}
  m_Children: []
  m_Father: {fileID: 0}
  m_RootOrder: 0
  m_LocalEulerAnglesHint: {x: 0, y: 0, z: 0}
--- !u!23 &2300000
MeshRenderer:
  m_ObjectHideFlags: 1
  m_PrefabParentObject: {fileID: 0}
  m_PrefabInternal: {fileID: 100100000}
  m_GameObject: {fileID: 100000}
  m_Enabled: 1
  m_CastShadows: 1
  m_ReceiveShadows: 1
  m_MotionVectors: 1
  m_LightProbeUsage: 0
  m_ReflectionProbeUsage: 1
  m_Materials:
  - {fileID: 2100000, guid: ef9b48454f9313f49bccab4cc2417a19, type: 2}
  m_StaticBatchInfo:
    firstSubMesh: 0
    subMeshCount: 0
  m_StaticBatchRoot: {fileID: 0}
  m_ProbeAnchor: {fileID: 0}
  m_LightProbeVolumeOverride: {fileID: 0}
  m_ScaleInLightmap: 1
  m_PreserveUVs: 0
  m_IgnoreNormalsForChartDetection: 0
  m_ImportantGI: 0
  m_SelectedEditorRenderState: 3
  m_MinimumChartSize: 4
  m_AutoUVMaxDistance: 0.5
  m_AutoUVMaxAngle: 89
  m_LightmapParameters: {fileID: 0}
  m_SortingLayerID: 0
  m_SortingLayer: 0
  m_SortingOrder: 0
--- !u!33 &3300000
MeshFilter:
  m_ObjectHideFlags: 1
  m_PrefabParentObject: {fileID: 0}
  m_PrefabInternal: {fileID: 100100000}
  m_GameObject: {fileID: 100000}
  m_Mesh: {fileID: 4301174, guid: 5f8bd1d04d124c842aab1d876a70abc6, type: 3}
--- !u!114 &11400000
MonoBehaviour:
  m_ObjectHideFlags: 1
  m_PrefabParentObject: {fileID: 0}
  m_PrefabInternal: {fileID: 100100000}
  m_GameObject: {fileID: 100000}
  m_Enabled: 1
  m_EditorHideFlags: 0
  m_Script: {fileID: 11500000, guid: ca5a43a5876758f4e9fb406905746835, type: 3}
  m_Name: 
  m_EditorClassIdentifier: 
  meshCache:
  - {fileID: 3301174, guid: 5f8bd1d04d124c842aab1d876a70abc6, type: 3}
  - {fileID: 3301196, guid: 5f8bd1d04d124c842aab1d876a70abc6, type: 3}
  - {fileID: 3301218, guid: 5f8bd1d04d124c842aab1d876a70abc6, type: 3}
  - {fileID: 3301240, guid: 5f8bd1d04d124c842aab1d876a70abc6, type: 3}
  - {fileID: 3301252, guid: 5f8bd1d04d124c842aab1d876a70abc6, type: 3}
  - {fileID: 3301254, guid: 5f8bd1d04d124c842aab1d876a70abc6, type: 3}
  - {fileID: 3301256, guid: 5f8bd1d04d124c842aab1d876a70abc6, type: 3}
  - {fileID: 3301258, guid: 5f8bd1d04d124c842aab1d876a70abc6, type: 3}
  - {fileID: 3301260, guid: 5f8bd1d04d124c842aab1d876a70abc6, type: 3}
  - {fileID: 3301176, guid: 5f8bd1d04d124c842aab1d876a70abc6, type: 3}
  - {fileID: 3301178, guid: 5f8bd1d04d124c842aab1d876a70abc6, type: 3}
  - {fileID: 3301180, guid: 5f8bd1d04d124c842aab1d876a70abc6, type: 3}
  - {fileID: 3301182, guid: 5f8bd1d04d124c842aab1d876a70abc6, type: 3}
  - {fileID: 3301184, guid: 5f8bd1d04d124c842aab1d876a70abc6, type: 3}
  - {fileID: 3301186, guid: 5f8bd1d04d124c842aab1d876a70abc6, type: 3}
  - {fileID: 3301188, guid: 5f8bd1d04d124c842aab1d876a70abc6, type: 3}
  - {fileID: 3301190, guid: 5f8bd1d04d124c842aab1d876a70abc6, type: 3}
  - {fileID: 3301192, guid: 5f8bd1d04d124c842aab1d876a70abc6, type: 3}
  - {fileID: 3301194, guid: 5f8bd1d04d124c842aab1d876a70abc6, type: 3}
  - {fileID: 3301198, guid: 5f8bd1d04d124c842aab1d876a70abc6, type: 3}
  - {fileID: 3301200, guid: 5f8bd1d04d124c842aab1d876a70abc6, type: 3}
  - {fileID: 3301202, guid: 5f8bd1d04d124c842aab1d876a70abc6, type: 3}
  - {fileID: 3301204, guid: 5f8bd1d04d124c842aab1d876a70abc6, type: 3}
  - {fileID: 3301206, guid: 5f8bd1d04d124c842aab1d876a70abc6, type: 3}
  - {fileID: 3301208, guid: 5f8bd1d04d124c842aab1d876a70abc6, type: 3}
  - {fileID: 3301210, guid: 5f8bd1d04d124c842aab1d876a70abc6, type: 3}
  - {fileID: 3301212, guid: 5f8bd1d04d124c842aab1d876a70abc6, type: 3}
  - {fileID: 3301214, guid: 5f8bd1d04d124c842aab1d876a70abc6, type: 3}
  - {fileID: 3301216, guid: 5f8bd1d04d124c842aab1d876a70abc6, type: 3}
  - {fileID: 3301220, guid: 5f8bd1d04d124c842aab1d876a70abc6, type: 3}
  - {fileID: 3301222, guid: 5f8bd1d04d124c842aab1d876a70abc6, type: 3}
  - {fileID: 3301224, guid: 5f8bd1d04d124c842aab1d876a70abc6, type: 3}
  - {fileID: 3301226, guid: 5f8bd1d04d124c842aab1d876a70abc6, type: 3}
  - {fileID: 3301228, guid: 5f8bd1d04d124c842aab1d876a70abc6, type: 3}
  - {fileID: 3301230, guid: 5f8bd1d04d124c842aab1d876a70abc6, type: 3}
  - {fileID: 3301232, guid: 5f8bd1d04d124c842aab1d876a70abc6, type: 3}
  - {fileID: 3301234, guid: 5f8bd1d04d124c842aab1d876a70abc6, type: 3}
  - {fileID: 3301236, guid: 5f8bd1d04d124c842aab1d876a70abc6, type: 3}
  - {fileID: 3301238, guid: 5f8bd1d04d124c842aab1d876a70abc6, type: 3}
  - {fileID: 3301242, guid: 5f8bd1d04d124c842aab1d876a70abc6, type: 3}
  - {fileID: 3301244, guid: 5f8bd1d04d124c842aab1d876a70abc6, type: 3}
  - {fileID: 3301246, guid: 5f8bd1d04d124c842aab1d876a70abc6, type: 3}
  - {fileID: 3301248, guid: 5f8bd1d04d124c842aab1d876a70abc6, type: 3}
  meshCached: {fileID: 400000, guid: 5f8bd1d04d124c842aab1d876a70abc6, type: 3}
  meshContainerFBX: {fileID: 400000, guid: 5f8bd1d04d124c842aab1d876a70abc6, type: 3}
  playSpeed: 28
  playSpeedRandom: 0
  randomSpeedLoop: 0
  currentFrame: 0
  meshCacheCount: 43
  meshFilter: {fileID: 3300000}
  rendererComponent: {fileID: 0}
  updateInterval: 0.05
  randomRotateX: 0
  randomRotateY: 0
  randomRotateZ: 0
  randomStartFrame: 1
  randomRotateLoop: 0
  loop: 1
  pingPong: 0
  playOnAwake: 1
  randomStartDelay: {x: 0, y: 0}
  transformCache: {fileID: 0}
  delta: 0
--- !u!1001 &100100000
Prefab:
  m_ObjectHideFlags: 1
  serializedVersion: 2
  m_Modification:
    m_TransformParent: {fileID: 0}
    m_Modifications: []
    m_RemovedComponents: []
  m_ParentPrefab: {fileID: 0}
  m_RootGameObject: {fileID: 100000}
  m_IsPrefabParent: 1
